<svg id="Logo" xmlns="http://www.w3.org/2000/svg" width="137.667" height="38.449" viewBox="0 0 137.667 38.449">
  <path id="Trazado_404" data-name="Trazado 404" d="M9.249,17.135A4.551,4.551,0,0,0,7.626,16a4.693,4.693,0,0,0-1.944-.363C2.35,15.64,0,18.374,0,21.92c0,3.567,2.35,6.237,5.7,6.237a4.939,4.939,0,0,0,1.922-.342,4.879,4.879,0,0,0,1.623-1.068v.32c0,1.773-1.282,2.755-3.1,2.755a8.24,8.24,0,0,1-4.059-1.2v4.08a9.556,9.556,0,0,0,4.059.854c4.507,0,7.113-2.243,7.113-7.049V15.9H9.249Zm-.641,6.088A2.4,2.4,0,0,1,7.54,24.1a2.293,2.293,0,0,1-1.367.128,2.5,2.5,0,0,1-1.218-.641,2.343,2.343,0,0,1-.641-1.2,2.355,2.355,0,0,1,1-2.435,2.4,2.4,0,0,1,1.3-.406,2.482,2.482,0,0,1,.9.171,2.688,2.688,0,0,1,.769.513A2.424,2.424,0,0,1,8.8,21a2.165,2.165,0,0,1,.171.9A1.99,1.99,0,0,1,8.608,23.223Z" transform="translate(0 -2.567)" fill="#fff"/>
  <path id="Trazado_405" data-name="Trazado 405" d="M25.82,23.038a1.684,1.684,0,0,1-.107.641,1.754,1.754,0,0,1-.342.534,1.819,1.819,0,0,1-.534.363,1.314,1.314,0,0,1-.641.107c-.983,0-1.6-.684-1.6-1.816V15.947H18.579v8.117a4.178,4.178,0,0,0,4.208,4.507,3.5,3.5,0,0,0,1.73-.406,3.4,3.4,0,0,0,1.3-1.218v1.346h4.016V15.947H25.82Z" transform="translate(-3.05 -2.618)" fill="#fff"/>
  <path id="Trazado_406" data-name="Trazado 406" d="M40.066,16.007a3.274,3.274,0,0,0-1.218,1.068V15.9H34.832V28.268h3.994V21.2a1.761,1.761,0,0,1,.15-.662A1.631,1.631,0,0,1,39.361,20a1.591,1.591,0,0,1,.577-.342,1.726,1.726,0,0,1,.662-.107,5.115,5.115,0,0,1,1.965.384V15.729a6.72,6.72,0,0,0-.94-.064A3.321,3.321,0,0,0,40.066,16.007Z" transform="translate(-5.718 -2.571)" fill="#fff"/>
  <path id="Trazado_407" data-name="Trazado 407" d="M53.522,23.038a1.685,1.685,0,0,1-.107.641,1.756,1.756,0,0,1-.342.534,1.821,1.821,0,0,1-.534.363,1.314,1.314,0,0,1-.641.107c-.983,0-1.6-.684-1.6-1.816V15.947H46.281v8.117a4.178,4.178,0,0,0,4.208,4.507,3.5,3.5,0,0,0,1.73-.406,3.4,3.4,0,0,0,1.3-1.218v1.346h4.016V15.947H53.522Z" transform="translate(-7.597 -2.618)" fill="#fff"/>
  <path id="Trazado_408" data-name="Trazado 408" d="M69.558,14.793a3.769,3.769,0,0,0-1.73.427,3.512,3.512,0,0,0-1.3,1.2V10.478H62.509V27.417h4.016v-7.07a1.313,1.313,0,0,1,.107-.641,1.563,1.563,0,0,1,.363-.555,1.6,1.6,0,0,1,1.2-.47,1.741,1.741,0,0,1,.662.128,1.693,1.693,0,0,1,.555.406,1.961,1.961,0,0,1,.342.577,1.408,1.408,0,0,1,.064.662v6.921H73.83V19.321C73.787,16.736,72.121,14.793,69.558,14.793Z" transform="translate(-10.261 -1.72)" fill="#fff"/>
  <path id="Trazado_409" data-name="Trazado 409" d="M87.831,16.729a6.5,6.5,0,0,0-3.589-1.089,6.161,6.161,0,0,0-2.478.47A6.379,6.379,0,0,0,79.65,17.5a6.51,6.51,0,0,0-.769,8.16,6.478,6.478,0,0,0,6.643,2.734,6.368,6.368,0,0,0,3.311-1.773,6.524,6.524,0,0,0,1.773-3.311,6.32,6.32,0,0,0-.363-3.717A6.988,6.988,0,0,0,87.831,16.729ZM86.7,23.18a2.534,2.534,0,0,1-1,1.111,2.485,2.485,0,0,1-1.453.342,2.412,2.412,0,0,1-.94-.214,2.525,2.525,0,0,1-.79-.555A2.734,2.734,0,0,1,82,23.03a2.391,2.391,0,0,1-.15-.961,2.47,2.47,0,0,1,.449-1.431,2.653,2.653,0,0,1,1.175-.94,2.555,2.555,0,0,1,1.5-.107,2.445,2.445,0,0,1,1.3.748,2.588,2.588,0,0,1,.662,1.346A2.739,2.739,0,0,1,86.7,23.18Z" transform="translate(-12.769 -2.567)" fill="#fff"/>
  <path id="Trazado_410" data-name="Trazado 410" d="M99.7,11.96l-3.781.812v2.521h-1.9V18.71h1.666v8.95H99.7V18.71h1.922V15.292H99.7Z" transform="translate(-15.433 -1.963)" fill="#fff"/>
  <path id="Trazado_411" data-name="Trazado 411" d="M109.971,15.64a6.18,6.18,0,0,0-6.215,6.43,6.155,6.155,0,0,0,6.45,6.451,10.937,10.937,0,0,0,4.443-.812V23.949a8.525,8.525,0,0,1-4.08.983,2.6,2.6,0,0,1-2.777-1.666h7.69a7.615,7.615,0,0,0,.213-1.837A5.567,5.567,0,0,0,109.971,15.64Zm-2.222,4.678a2.2,2.2,0,0,1,.876-1.047,2.05,2.05,0,0,1,1.325-.32c1.111,0,1.836.555,1.922,1.367Z" transform="translate(-17.031 -2.567)" fill="#fff"/>
  <path id="Trazado_412" data-name="Trazado 412" d="M123.871,10.478h-4.015V27.417h4.015Z" transform="translate(-19.674 -1.72)" fill="#fff"/>
  <path id="Trazado_413" data-name="Trazado 413" d="M138.175,4.6l-2.251,30.79h11.238V4.6Z" transform="translate(-22.312 -0.756)" fill="#fff"/>
  <path id="Trazado_414" data-name="Trazado 414" d="M162.351,3.849,150.382,0V38.449l11.969-3.81Zm-8.717,18.378-.885.192V16.261l.885-.1Z" transform="translate(-24.685)" fill="#fff"/>
</svg>
