<svg xmlns="http://www.w3.org/2000/svg" width="24.054" height="38.449" viewBox="0 0 24.054 38.449">
  <g id="Grupo_281" data-name="Grupo 281" transform="translate(-113.612)">
    <path id="Trazado_413" data-name="Trazado 413" d="M138.175,4.6l-2.251,30.79h11.238V4.6Z" transform="translate(-22.312 -0.756)" fill="#fff"/>
    <path id="Trazado_414" data-name="Trazado 414" d="M162.351,3.849,150.382,0V38.449l11.969-3.81Zm-8.717,18.378-.885.192V16.261l.885-.1Z" transform="translate(-24.685)" fill="#fff"/>
  </g>
</svg>
