<svg xmlns="http://www.w3.org/2000/svg" width="78.161" height="41.53" viewBox="0 0 78.161 41.53">
  <g id="Grupo_264" data-name="Grupo 264" transform="translate(-98 -88)">
    <g id="Componente_2_5" data-name="Componente 2 – 5" transform="translate(98 88)">
      <path id="Trazado_1" data-name="Trazado 1" d="M7.948,55.962a5.769,5.769,0,0,1-1.779-.316A3.983,3.983,0,0,1,4.878,55.1c-.918-.6-1.463-1.75-2.238-2.554a9.087,9.087,0,0,1-1.148-1.406A9.349,9.349,0,0,1,.6,49.564a7.328,7.328,0,0,1-.545-1.578A.568.568,0,0,1,0,47.67a3.69,3.69,0,0,1,.287-1.205c.115-.4.488-1.578.889-1.578.143,0,.2.172.258.4a2.789,2.789,0,0,0,.287,1.062A14.227,14.227,0,0,0,2.353,47.7a3.74,3.74,0,0,1,.43.574c.057.143,0,.316.057.43.029.086.143.086.2.086.115,0,.23-.057.373-.057.43,0,.861.258,1.377.258a17.272,17.272,0,0,0,2.726-.344,8.6,8.6,0,0,1,1.836-.316,2.043,2.043,0,0,0,.976-.43,2.937,2.937,0,0,1,1.32-.689c.4,0,.373.344.746.344s.631-.545.861-.832c.258-.344.8-.947.8-1.291a.351.351,0,0,0-.115-.258,2.167,2.167,0,0,0-.689-.574,3.744,3.744,0,0,1-1.291-1.033,4.747,4.747,0,0,0-.976-1.033c-.344-.316-.717-.631-1.033-.976-.23-.258-.316-.545-.574-.8a2.792,2.792,0,0,1-.631-.889,7.422,7.422,0,0,0-.8-1.578c-.287-.316-.6-.43-.832-.832a3.276,3.276,0,0,1-.4-1.435A5.633,5.633,0,0,0,6.456,34.5c-.057-.143-.172-.172-.172-.316,0-.172.258-.258.258-.459,0-.23-.115-.373-.115-.689A4.769,4.769,0,0,1,7,31.458c.115-.258.43-.717.516-.976a.248.248,0,0,0,.172.086c.115,0,.2-.143.2-.23,0-.115-.4,0-.43-.172a.313.313,0,0,1,.258-.172c.2,0,.316.258.545.258.143,0,.2-.086.2-.172s-.086-.172-.258-.172c.545-.545,1.263-.6,1.808-1a1.55,1.55,0,0,0,.545-.717,2.874,2.874,0,0,1,.947-1.119,13,13,0,0,1,1.521-.947c.488-.258,1-.545,1.492-.832a.6.6,0,0,0,.316-.459c0-.143-.143-.2-.258-.2-.43,0-1.263.861-1.951.976,0-.4,1.205-.918,1.492-1.148.918-.631,1.865-1.234,2.841-1.779,1.148-.631,2.668-1.578,4.074-1.578a2.417,2.417,0,0,1,1,.2,3.453,3.453,0,0,0,.947.172,3.5,3.5,0,0,1,1.062.459c.172.086.545.115.66.258.086.086.086.115.086.172a.885.885,0,0,0,.029.287.807.807,0,0,0,.4.316,1.7,1.7,0,0,1,.775.717c.143.23.23.516.4.746s.4.4.6.631a3.673,3.673,0,0,1,.6,1.148,2.579,2.579,0,0,0,.488.746c.172.258.2.545.344.8.143.287.4.488.545.775.172.43.23.947.373,1.377.115.4.258.775.344,1.176a2.861,2.861,0,0,1,.057.459,2.2,2.2,0,0,1-.746,1.521c-.287.316-.574.6-.861.889a4.4,4.4,0,0,1-1.263.775,3.683,3.683,0,0,0-.746.689c-.258.287-.43.574-.689.574-.143,0-.316-.057-.459-.057a1.615,1.615,0,0,0-.918.373c-.373.258-.8.43-1.148.689-.143.115-.258.344-.43.344-.2,0-.287-.2-.4-.2-.23,0-.488.43-.689.545a1.964,1.964,0,0,1-.775.143A1.836,1.836,0,0,1,19.6,37.57a.594.594,0,0,1-.258-.373v-.143c0-.287-.172-.2-.258-.373-.029-.029-.029-.086-.057-.143-.029-.086-.086-.086-.086-.23a1.856,1.856,0,0,1,.115-.373,4.583,4.583,0,0,1,.631-.89c.287-.373.545-.746.8-1.119a2.265,2.265,0,0,0,.4-.66.062.062,0,0,0-.057-.057c-.172,0-.516.316-.746.516,0-.316.43-.66.631-.889.344-.4.689-.832,1.033-1.234.545-.6,1.09-1.205,1.607-1.836.086-.115.373-.43.373-.574s-.143-.2-.344-.2a7.242,7.242,0,0,0-2.984.976c-.947.574-1.894,1.148-2.812,1.779-.66.43-1.32.861-1.98,1.32a6.233,6.233,0,0,0-1.033.918c-.316.344-.6.689-.918,1.033-.143.143-.631.4-.631.631,0,.143.172.287.2.4.057.143.029.316.086.459.2.344.545.258.775.545.2.258.143.66.316.918a15.041,15.041,0,0,0,1.951,1.463,19.561,19.561,0,0,1,2.181,2.181,8.318,8.318,0,0,1,1.549,2.037,8.767,8.767,0,0,1,1.062,2.3,10.309,10.309,0,0,1,.086,1.349,9.871,9.871,0,0,1-.086,1.32,3.932,3.932,0,0,1-.918,2.181c-.2.258-.316.516-.488.775a2.435,2.435,0,0,1-.717.6,16.864,16.864,0,0,1-2.238,1.492c-.861.4-1.722.8-2.582,1.176a13.249,13.249,0,0,1-2.812.832,23.228,23.228,0,0,1-3.443.287ZM5.509,50.511a.379.379,0,0,0-.43-.373c-.316,0-.459.172-.459.344a.436.436,0,0,0,.488.4C5.394,50.884,5.538,50.683,5.509,50.511Zm1.722.057c0-.172-.172-.373-.545-.373-.287,0-.43.143-.43.287,0,.172.2.344.574.344C7.087,50.826,7.231,50.711,7.231,50.568Zm4.361-1.263c-.029-.057-.143-.086-.287-.086a13.166,13.166,0,0,0-2.009.6c-.947.287-1.521.4-1.521.631a1.138,1.138,0,0,0,.574.115C9.7,50.568,11.678,49.564,11.592,49.305ZM9.1,28.388c0-.115.23-.287.43-.287,0,.057-.143.373-.344.373C9.1,28.474,9.1,28.445,9.1,28.388Zm.775,4.878a7.88,7.88,0,0,1,.631-.746c.459-.459.746-1,1.234-1.435a5,5,0,0,0,1.09-1.263,2.6,2.6,0,0,1,.316-.459c.057-.086.2-.258.2-.344a6.838,6.838,0,0,0-.918.717c-.459.459-.889.918-1.291,1.406a9.378,9.378,0,0,0-.8,1.062c-.2.316-.373.574-.574.889-.2.287-.459.488-.459.66,0,.057.029.172.115.172C9.584,33.926,9.813,33.381,9.87,33.266Zm-.057-5.308a.126.126,0,0,1-.086-.029c0-.115.43-.4.488-.459.258-.258.43-.66.66-.66.086,0,.115.029.115.057a3.294,3.294,0,0,1-1.176,1.09Zm.115,3.185c.23,0,.631-.459.631-.66,0-.057-.029-.086-.115-.086-.316,0-.545.488-.516.746Zm.861-.918c.516,0,.861-.976,1.205-.976,0,.172-.2.23-.2.4.373,0,.717-.459.947-.689a6.626,6.626,0,0,1,1.119-.889q.732-.516,1.463-.947a7.341,7.341,0,0,0,.746-.4c.316-.2.631-.4.631-.6,0-.086-.057-.115-.143-.115a2.794,2.794,0,0,0-.832.344,15.771,15.771,0,0,0-1.636,1.033c-.516.344-.976.746-1.463,1.119-.172.143-.43.4-.689.6a.972.972,0,0,1-.516.258.425.425,0,0,0,.029-.2c-.029.029-.775.717-.775.976-.029.029.029.086.115.086Zm1.09-3.96c.029-.143.23-.516.488-.516a.73.73,0,0,1,.2.057c-.143.086-.258.172-.4.258-.115.086-.2.143-.287.2Zm5.136-2.64a5.907,5.907,0,0,0,.459-.43h-.086a1.576,1.576,0,0,0-.516.143c-.23.115-.459.258-.459.4a.105.105,0,0,0,.029.086A.932.932,0,0,0,17.015,23.625Z" transform="translate(0 -15.046)" fill="#fff"/>
      <path id="Trazado_2" data-name="Trazado 2" d="M84.68,51.354a2.175,2.175,0,0,1-.746-.344,2.8,2.8,0,0,0-.316-.143c-.143-.057-.316-.086-.488-.143a2.881,2.881,0,0,1-.8-.574,4,4,0,0,0-.545-.43c-.172-.115-.373-.258-.574-.4a2.155,2.155,0,0,1-.488-.545.967.967,0,0,1-.143-.488v-.373a2.172,2.172,0,0,0-.029-.43,2,2,0,0,0-.172-.488,3.634,3.634,0,0,0-.316-.373c-.115-.143-.086-.2-.172-.373a5.517,5.517,0,0,0-.373-.488c-.143-.143-.316-.287-.316-.4s.143-.143.258-.143c.086,0,.23.029.316.029a.283.283,0,0,0,.258-.172c.086-.086.115-.23.2-.344a5.133,5.133,0,0,0,.373-.4c.057-.086.143-.2.2-.287a.482.482,0,0,1,.258-.2c.057,0,.086.086.057.316.172,0,.2-.4.258-.746.029-.258.086-.459.23-.459.086,0,.086.2.143.258,0-.143.172-.258.172-.4,0-.057-.2-.143-.23-.23a.75.75,0,0,1,.086-.23,1.353,1.353,0,0,1,.172-.43,3.739,3.739,0,0,1,.287-.43,2.982,2.982,0,0,0,.488-.689c.057-.115.086-.43.23-.43.172,0,.143.316.143.43.172-.086.143-.287.2-.488.057-.172.2-.316.2-.43,0-.086-.115-.143-.115-.287a.437.437,0,0,1,.172-.287,2.011,2.011,0,0,1,.287-.23,3.136,3.136,0,0,0,.23-.43c.057-.143.143-.287.2-.43a1.342,1.342,0,0,0,.143-.287l.172-.344c.115-.2.287-.344.4-.516a1.991,1.991,0,0,0,.143-.373,1.006,1.006,0,0,1,.172-.4,1.577,1.577,0,0,1,.2-.258l.23-.23a.089.089,0,0,1,.057-.029c.057,0,.115.029.172,0l.172-.172c.057-.086.143-.172.23-.316.2-.43.373-.861.574-1.291a6.271,6.271,0,0,1,.316-.574,1.316,1.316,0,0,0,.172-.459,1.792,1.792,0,0,0-.516-.057,2.529,2.529,0,0,0-.66.172c-.057,0-.086-.029-.086-.057,0-.143.172-.143.172-.344,0-.115-.086-.172-.2-.23a.752.752,0,0,1-.258-.143c-.086-.086-.029-.258-.086-.344a4.491,4.491,0,0,1-.4-1.09c0-.057-.057-.344-.115-.344s-.086.115-.172.115c-.143,0-.287-.23-.344-.43l-.258-.689a2.222,2.222,0,0,1-.115-.574c0-.23.057-.373.258-.373.115,0,.23.057.344.029.115,0,.172-.115.258-.2a.463.463,0,0,1,.373-.172h.8a1.141,1.141,0,0,0,.574-.2,2.911,2.911,0,0,1,.689-.057c.115,0,.172.086.344.086a2.149,2.149,0,0,0,.459-.115c.172-.057.344-.057.516-.115a6.833,6.833,0,0,1,.746-.143c.172,0,.344.057.516.057a.554.554,0,0,0,.287-.086,1.147,1.147,0,0,0,.373-.545,4.923,4.923,0,0,1,.258-.545,5.82,5.82,0,0,1,.373-.516,2.264,2.264,0,0,0,.459-.861c.029-.2.086-.4.115-.6a1.9,1.9,0,0,1,.143-.43c.029-.086.172-.143.2-.258.029-.086,0-.258.029-.316.057-.143.2-.172.23-.258.029-.115-.057-.172-.057-.258,0-.172.143-.2.23-.344a3.711,3.711,0,0,0,.23-.746,1.412,1.412,0,0,1,.373-.516,1.094,1.094,0,0,0,.316-.4c.029-.086,0-.23.086-.316.057-.086.172-.143.2-.2a1.7,1.7,0,0,0,.143-.545,2.479,2.479,0,0,1,.2-.6l.258-.516c.086-.172.143-.287.23-.43a1.96,1.96,0,0,1,.516-.574,3.755,3.755,0,0,0,.373-.344.957.957,0,0,0,.316-.631,2.341,2.341,0,0,1,.057-.516,2.2,2.2,0,0,1,.2-.488c.115-.258.143-.631.43-.631s.574.143.889.143c.516,0,.918-.4,1.377-.4a1.05,1.05,0,0,1,.689.23c.2.115.287.344.488.459a3.424,3.424,0,0,0,.746.143c.344.086.43.258.689.488.172.143.4.23.516.43.143.316-.029.717.2,1.033.2.258.459.316.488.689a1.679,1.679,0,0,1-.143.631,4.059,4.059,0,0,1-.4.889c-.2.344-.43.689-.631,1a10.851,10.851,0,0,0-.746,1.234c-.258.545-.516,1.119-.8,1.693-.172.344-.373.689-.545,1.033a3.321,3.321,0,0,1-.4.689,3.15,3.15,0,0,0-.258.4c.2,0,.4-.115.574-.086.143,0,.2.086.344.086.172,0,.344-.086.516-.086.287,0,.459.2.689.316.2.115.6.143.775.316s.057.344.2.516c.086.115.344.172.6.287a1.063,1.063,0,0,1,.488.459,4.727,4.727,0,0,1,.258.631c.086.23.2.43.287.43s.115-.029.2-.029c.344,0,.574.6.574,1.09a1.119,1.119,0,0,1-1.062,1.119c-.143,0-.316-.029-.488-.029a7.507,7.507,0,0,0-2.123.172c-1.148.2-2.3.316-3.415.6-.746.172-1.521.344-2.238.574-.545.143-.574.373-.832.861l-.258.516a12.344,12.344,0,0,1-.918,1.722L92.4,36.721a13.655,13.655,0,0,0-.8,1.406c-.23.459-.459.947-.717,1.406-.287.516-.574,1.033-.889,1.549-.459.746-.717,1.492-1.148,2.267-.23.43-.516.861-.775,1.291s-.545.861-.775,1.291c-.172.316-.344.631-.545.976-.2.373-.4.775-.574,1.148a4.943,4.943,0,0,0-.2.6,1.755,1.755,0,0,1-.143.344.748.748,0,0,0-.086.316.864.864,0,0,0,.115.4,1.341,1.341,0,0,1,.172.545c0,.287-.316.631-.689.889a2.151,2.151,0,0,1-.66.2ZM83.447,41.8a1.028,1.028,0,0,1,.115-.316,4.2,4.2,0,0,1,.258-.373,2.043,2.043,0,0,0,.316-.488,3.519,3.519,0,0,0,.143-.373,1.272,1.272,0,0,0,.086-.43c0-.115-.029-.2-.143-.2-.143,0-.287.258-.43.574-.115.316-.23.631-.287.746-.029.057-.143.086-.143.2a1.244,1.244,0,0,0,.029.143c0,.029,0,.057-.029.057-.086,0-.115-.029-.172-.029-.086,0-.115.115-.115.258,0,.258.057.488.2.488A.418.418,0,0,0,83.447,41.8Zm1.263-.976a1.279,1.279,0,0,0,.2-.545c0-.086-.057-.172-.115-.172-.115,0-.23.2-.344.4a1.912,1.912,0,0,0-.172.545c0,.057,0,.115.057.115C84.451,41.2,84.594,41.025,84.709,40.824Zm.918-1.664a5.1,5.1,0,0,1,.488-.861,5.535,5.535,0,0,0,.373-.6c.143-.23.258-.459.373-.689a6.135,6.135,0,0,0,.287-.631,6.146,6.146,0,0,1,.287-.631,2.14,2.14,0,0,0,.2-.344,1.766,1.766,0,0,0,.086-.316c.029-.115.029-.23.057-.373.029-.086.143-.316.258-.6a3.1,3.1,0,0,0,.23-.746c0-.172-.057-.287-.258-.287-.143,0-.258.172-.344.344a3.543,3.543,0,0,0-.258.689l-.172.6a2.724,2.724,0,0,1-.258.6,4.114,4.114,0,0,1-.574.66,2.58,2.58,0,0,0-.459.516c-.23.316-.344.631-.574.947A2.167,2.167,0,0,0,85,38.1a2.831,2.831,0,0,0-.287.775,1.83,1.83,0,0,0,.373,1.176A6.67,6.67,0,0,0,85.627,39.16Zm.66,4.132c.086-.057.23,0,.287-.057a.381.381,0,0,0,.086-.2c0-.115-.143-.172-.143-.373-.057,0-.2.143-.316.344a1.069,1.069,0,0,0-.2.516.105.105,0,0,0,.029.086A1.522,1.522,0,0,1,86.287,43.292Zm.6-4.562a7.138,7.138,0,0,0,.43-.8c.172-.344.373-.66.545-1,.057-.115.4-.574.4-.8,0-.057-.029-.115-.086-.115-.115,0-.287.373-.316.43-.287.545-.516,1.09-.8,1.607-.029.057-.23.43-.4.775a3.277,3.277,0,0,0-.172.43C86.718,39.16,86.775,38.93,86.89,38.729Zm.258,2.9a2.625,2.625,0,0,1,.4-.2,5.064,5.064,0,0,0,.516-.545,1.813,1.813,0,0,0,.344-.66c0-.143-.029-.23-.086-.23-.115,0-.23.115-.287.258-.115.172-.2.43-.23.459a2.168,2.168,0,0,0-.4.316c-.086.143-.316.43-.459.689a.915.915,0,0,0-.172.488C86.919,42.144,87.033,41.713,87.148,41.627ZM88.3,35.946a1.256,1.256,0,0,0,.459-.6c.143-.344.23-.746.316-.976a4.809,4.809,0,0,0,.459-1c0-.086,0-.115-.086-.115-.115,0-.344.373-.545.746a4.568,4.568,0,0,0-.373.861c-.115.344-.316.889-.23,1.09Zm.172,3.73c.143,0,.316-.2.459-.43.23-.344.43-.775.516-.918l.287-.43a.969.969,0,0,0,.115-.287c0-.143-.258-.344-.373-.344a1.546,1.546,0,0,0-.2.373,3,3,0,0,1-.316.689,1.986,1.986,0,0,0-.4.631,1.474,1.474,0,0,1-.115.287.4.4,0,0,0-.143.287s.057.143.172.143Zm1.664-2.7c0-.086-.115-.057-.143-.115-.029-.029-.057-.2-.115-.2s-.115.086-.115.143c0,.086.086.344.2.344C89.989,37.151,90.132,37.036,90.132,36.979Zm.459-.775c0-.086-.029-.086-.057-.086a4.087,4.087,0,0,0-.459.086c-.029.115.115.516.23.516A1.014,1.014,0,0,0,90.591,36.2Z" transform="translate(-56.475 -10.696)" fill="#fff"/>
      <path id="Trazado_3" data-name="Trazado 3" d="M137.893,39.052c-.287,0-.43-.316-.66-.316-.2,0-.287.115-.516.115-.115,0-.2-.115-.287-.23a1.353,1.353,0,0,0-.287-.287.683.683,0,0,0-.4-.086.4.4,0,0,1-.316-.143c-.115-.115-.115-.258-.2-.373s-.258-.23-.316-.344a6.633,6.633,0,0,1-.172-.775c-.057-.258-.115-.488-.23-.488-.23,0-.2.488-.43.488-.2,0-.459-.316-.545-.488a1.243,1.243,0,0,1-.115-.545v-.545a1.386,1.386,0,0,0-.172-.717,1.842,1.842,0,0,0-.287-.373.818.818,0,0,1-.258-.488c0-.172.143-.287.287-.43a1.975,1.975,0,0,0,.316-.373c.143-.287.23-.66.373-.947a12.951,12.951,0,0,1,.574-1.176c.172-.287.344-.516.488-.516a.149.149,0,0,1,.115.057c.115,0,.23-.143.287-.373a3.781,3.781,0,0,0,.143-.918c0-.143-.029-.23-.029-.344,0-.172.115-.23.23-.287a.765.765,0,0,0,.287-.172c.172-.172.2-.4.344-.574.172-.258.43-.488.6-.746a8.529,8.529,0,0,1,.574-.832c.23-.287.574-.516.717-.861a7.667,7.667,0,0,1,.258-.746c.143-.23.316-.43.459-.66a4.432,4.432,0,0,0,.488-.976c.115-.344.172-.918.316-1.234.287-.6.545-1.062.889-1.693.287-.545.6-1.09.861-1.636.086-.172.172-.43.258-.631a.425.425,0,0,1,.373-.287c.172,0,.258.086.459.086.23,0,.373-.373.488-.488a2.459,2.459,0,0,1,1.377-.631,3.946,3.946,0,0,1,.717.143c.143,0,.287-.029.43-.029a4.184,4.184,0,0,1,1.32.287,9.3,9.3,0,0,1,.889.689,4.759,4.759,0,0,1,1,1c.23.316.631.689.631,1.062-.029.459-.488.832-.717,1.176a10.055,10.055,0,0,1-.775,1.148c-.316.43-.631.889-.947,1.32-.316.459-.545.976-.832,1.435a7,7,0,0,0-1,1.578c-.057.172-.086.373-.143.545a4.284,4.284,0,0,1-.373.717,6.308,6.308,0,0,1-.4.516,4.407,4.407,0,0,0-.373.344,3.989,3.989,0,0,0-.344.8c-.4.775-.832,1.549-1.262,2.3-.23.373-.43.746-.66,1.148-.258.459-.516.947-.746,1.435a17.82,17.82,0,0,0-.8,1.894c-.143.4-.316.775-.459,1.148a8.344,8.344,0,0,0-.344,1.119,1.864,1.864,0,0,1-.316.947c-.086.2-.574.258-.832.258Zm-2.582-4.907c.344,0,.545-.516.689-.947a11.791,11.791,0,0,1,.775-1.463,10.31,10.31,0,0,0,.488-.976c.086-.2.143-.545.23-.717a1.854,1.854,0,0,1,.23-.258,2.194,2.194,0,0,0,.258-.258,1.751,1.751,0,0,0,.2-.4,2.667,2.667,0,0,1,.143-.287c.057-.115.172-.258.23-.373a.56.56,0,0,0,.029-.2c0-.086-.029-.143-.029-.258a.194.194,0,0,1,.115-.172l.172-.086a2.089,2.089,0,0,0,.23-.258c.143-.2.344-.459.459-.66a1.108,1.108,0,0,0,.23-.574c0-.086-.029-.143-.029-.258,0-.143.143-.172.258-.258.115-.057.2-.115.2-.258v-.2a.816.816,0,0,1,.115-.344c.057-.115.143-.258.23-.43a2.2,2.2,0,0,0,.172-.689q0-.172-.086-.172c-.086,0-.2.2-.316.344a13.084,13.084,0,0,0-.947,1.607c-.2.344-.459.66-.66,1-.287.488-.574,1-.832,1.521-.4.775-.8,1.549-1.234,2.3-.344.6-.689,1.205-.976,1.808a4.6,4.6,0,0,0-.6,1.549c-.029.23.057.373.258.373Zm1.349,1.09c.172,0,.459-.459.459-.717,0-.115-.057-.172-.2-.172s-.373.488-.373.746c.029.086.057.143.115.143Zm13.6-23.069c-.172,0-.316-.172-.459-.287-.287-.2-.4-.143-.689-.23-.344-.086-.373-.287-.545-.6a4.389,4.389,0,0,0-.746-.889,2.486,2.486,0,0,1-.8-1.664,7.356,7.356,0,0,1,.2-1.779,9.471,9.471,0,0,1,.918-2.468c.344-.717.717-1.463,1-2.209.086-.2.143-.4.23-.6A1.437,1.437,0,0,1,149.916.8,1.413,1.413,0,0,1,150.4.631a3.631,3.631,0,0,0,.516-.172c.258-.143.488-.459.775-.459,0,.086-.029.172-.029.258,0,.115.029.2.2.2.2,0,.258-.086.488-.086a1.379,1.379,0,0,1,.43.115c.2.086.373.2.373.287,0,.143-.115.23-.258.287s-.258.086-.258.2c0,.086.143.115.287.115.316,0,.8-.086,1.09-.086a2.377,2.377,0,0,1,1.291.631,1.739,1.739,0,0,1,.545.746c.143.287.23.574.373.832a3.159,3.159,0,0,1,.373,1.263,5.81,5.81,0,0,1-.115.746,1.763,1.763,0,0,0-.029.373,1.116,1.116,0,0,1-.057.43,1.627,1.627,0,0,1-.459.631,7.5,7.5,0,0,0-.861.775,10.2,10.2,0,0,0-.66.889c-.2.287-.4.6-.6.889-.172.23-.316.574-.516.689-.115.057-.316.2-.574.344-.2.115-.373.287-.574.43a2.5,2.5,0,0,1-.43.373,4.592,4.592,0,0,0-.6.373c-.4.287-.6.459-.861.459Z" transform="translate(-94.624 0)" fill="#fff"/>
      <path id="Trazado_4" data-name="Trazado 4" d="M180.691,80.846a1.96,1.96,0,0,1-1.148-.373,1.638,1.638,0,0,1-.373-.4,1.454,1.454,0,0,1-.2-.43.775.775,0,0,0-.143-.344.432.432,0,0,0-.23-.115c-.086-.029-.172-.057-.316-.115a.867.867,0,0,1-.4-.545,3.51,3.51,0,0,0-.287-.689,1.722,1.722,0,0,0-.545-.459,2.248,2.248,0,0,1-.43-.287,1.373,1.373,0,0,1-.373-.631,2.984,2.984,0,0,1-.143-.832,1.592,1.592,0,0,1,.2-.8,2.362,2.362,0,0,1,.459-.631,4.251,4.251,0,0,0,.4-.717,1.321,1.321,0,0,0,.172-.516.173.173,0,0,0-.086-.172.283.283,0,0,1-.086-.23,1.25,1.25,0,0,1,.172-.488c.086-.2.23-.4.344-.631a2.8,2.8,0,0,1,.516-.717c.115-.115.287-.287.287-.373,0-.057-.057-.115-.115-.172s-.115-.115-.115-.172c0-.086.057-.115.086-.115.086,0,.172.057.23.057.029,0,.057-.029.057-.086,0-.086-.057-.172-.057-.258a.26.26,0,0,1,.086-.2.462.462,0,0,1,.2-.115.473.473,0,0,0,.23-.287.283.283,0,0,1-.172.057.1.1,0,0,1-.057-.029c0-.086.172-.258.23-.344a7.2,7.2,0,0,0,.746-1.291c.172-.373.344-.746.516-1.09.143-.344.287-.66.4-1a10.786,10.786,0,0,1,.574-1.32,5.826,5.826,0,0,0,.4-1.119,4.64,4.64,0,0,1,.172-.488c.086-.172.172-.316.258-.488a.641.641,0,0,0,.086-.287c0-.143-.029-.287-.029-.43,0-.287.143-.373.258-.574a1.254,1.254,0,0,0,.172-.689,1.631,1.631,0,0,1,.086-.775,1.479,1.479,0,0,1,.344-.459.689.689,0,0,0,.258-.488c0-.2-.086-.43-.086-.631a.554.554,0,0,1,.086-.287.548.548,0,0,1,.459-.172,1.692,1.692,0,0,0,.4-.057c.172-.086.258-.258.43-.344a.683.683,0,0,1,.4-.086,1.017,1.017,0,0,1,.717.4c.23.23.43.488.775.488.316,0,.574-.057.918-.057a1.328,1.328,0,0,1,.8.258,2.393,2.393,0,0,0,.344.23c.115.086.23.143.344.23a1.1,1.1,0,0,1,.258.258,1.006,1.006,0,0,1,.172.4.515.515,0,0,0,.143.2c.086.057.2.086.258.172a.8.8,0,0,1,.172.6,2.253,2.253,0,0,1-.143.631,4.775,4.775,0,0,1-.23.861c-.086.2-.172.373-.258.574-.115.258-.258.516-.373.775a2.838,2.838,0,0,0-.316.947,1.478,1.478,0,0,1-.258.574c-.115.2-.258.4-.373.6-.2.4-.316.8-.516,1.205l-.43.775c-.172.287-.373.6-.545.889-.2.344-.373.66-.574,1-.23.4-.459.8-.717,1.205-.23.373-.43.717-.631,1.09-.2.4-.4.832-.574,1.263a8.742,8.742,0,0,1-.6,1.148,10.67,10.67,0,0,0-.631,1.09l.574-.4a7.416,7.416,0,0,0,1.148-1.176,16.713,16.713,0,0,1,1.148-1.291,3.305,3.305,0,0,1,.488-.4,7.38,7.38,0,0,0,.689-.6c.172-.2.258-.488.459-.689s.43-.4.631-.6c.143-.143.287-.373.459-.574a2.029,2.029,0,0,1,.43-.43c.057-.029.143-.029.2-.057a.211.211,0,0,0,.172-.057c.143-.086.086-.2.2-.344.057-.086.23-.115.287-.172a.217.217,0,0,0,.057-.115q.043-.172.172-.172c.057,0,.086.029.144.029.115,0,.172-.115.172-.23a1.02,1.02,0,0,1,.143-.545,2.723,2.723,0,0,1,.775-.574c.172-.143.316-.316.459-.459a3.26,3.26,0,0,1,.43-.459.959.959,0,0,0,.316-.43,3.924,3.924,0,0,1,.143-.545.594.594,0,0,1,.316-.373c.115-.057.23-.115.373-.2a1.785,1.785,0,0,0,.689-.775c.086-.143.143-.316.23-.459s.2-.2.258-.287a5.331,5.331,0,0,0,.316-.545l.258-.6c.086-.172.23-.43.373-.689a1.848,1.848,0,0,0,.23-.545c0-.115-.029-.172-.029-.258a.256.256,0,0,1,.143-.23.974.974,0,0,0,.172-.172,1.646,1.646,0,0,0,.115-.4,1.145,1.145,0,0,1,.115-.373.593.593,0,0,1,.459-.143c.2,0,.43.057.631.057.287,0,.488-.258.631-.23.057,0,.115.057.172.258a3.183,3.183,0,0,1,.976-.172,1.284,1.284,0,0,1,.574.115.4.4,0,0,1,.23.344c0,.143-.086.258-.287.373a.509.509,0,0,0,.287.23c.115,0,.2-.057.4-.057a.216.216,0,0,1,.2.172c0,.143-.086.316-.086.4a.121.121,0,0,0,.115.115.981.981,0,0,1,.316.029.3.3,0,0,1,.23.172c.057.057.086.143.172.23a2.6,2.6,0,0,0,.545.373,6.252,6.252,0,0,1,.631.344c.115.086.172.115.172.287,0,.143-.172.2-.172.344,0,.2.115.23.115.373a1.323,1.323,0,0,1-.488.775,7.785,7.785,0,0,1-.717.689c-.4.373-.832.717-1.234,1.119a13.427,13.427,0,0,0-1.234,1.32,7.473,7.473,0,0,1-1.09,1.033c-.488.43-.861,1-1.32,1.492-.43.43-.861.861-1.291,1.263-.258.23-.43.545-.775.717-.2.115-.373.086-.574.2-.316.172-.631.746-.861,1-.488.545-.976,1.119-1.492,1.664l-1.808,1.98q-1.248,1.334-2.582,2.582c-.287.258-.574.488-.861.746a10.789,10.789,0,0,1-.889.717,8.593,8.593,0,0,1-.689.516,3.109,3.109,0,0,1-.545.23,3.292,3.292,0,0,0-.832.316,6.684,6.684,0,0,1-.8.316,6.342,6.342,0,0,0-.717.143c-.086.029-.2.2-.4.287-.029-.143-.2-.086-.43-.086Zm-2.611-3.874a2.407,2.407,0,0,0,.488-.631,1.269,1.269,0,0,0,.143-.43,1.646,1.646,0,0,1,.115-.4c.086-.172.287-.258.373-.4a1.9,1.9,0,0,0,.144-.43,6.009,6.009,0,0,0,.23-.66,5.237,5.237,0,0,0,.2-.717.832.832,0,0,1,.258-.43,1.25,1.25,0,0,0,.287-.459c.086-.23.172-.43.258-.631a6.06,6.06,0,0,1,.316-.6,2.413,2.413,0,0,0,.287-.631c.057-.172.086-.344.144-.545a2.326,2.326,0,0,1,.287-.6,2.841,2.841,0,0,0,.316-.488,2.9,2.9,0,0,0,.2-.43,2.792,2.792,0,0,1,.23-.545c.115-.23.23-.43.344-.66.115-.2.2-.4.316-.574a6.175,6.175,0,0,0,.258-.574,1.531,1.531,0,0,0,.143-.574c0-.172-.057-.258-.115-.258-.115,0-.258.2-.344.373a.173.173,0,0,0-.029.115.618.618,0,0,1,0,.23.105.105,0,0,1-.029.086,4.521,4.521,0,0,1-.344.43,11.458,11.458,0,0,0-.775,1.263c-.23.4-.43.832-.631,1.263-.23.459-.488.918-.746,1.377-.258.488-.545.947-.8,1.463-.23.488-.459.976-.66,1.492-.172.459-.344.889-.516,1.349-.143.4-.287.775-.4,1.176a2.346,2.346,0,0,0-.143.631,1.5,1.5,0,0,0,.2.43Zm2.181-.861a3.118,3.118,0,0,0,.2-.918,1.448,1.448,0,0,0-.545.717,2.8,2.8,0,0,0-.23.947A1.252,1.252,0,0,0,180.26,76.111Zm7.2-2.324a.5.5,0,0,0-.115-.344.866.866,0,0,0-.516.23,1.288,1.288,0,0,0-.2.43.964.964,0,0,0,.43.115A.412.412,0,0,0,187.463,73.787Zm1.291-1.664a1.22,1.22,0,0,0-.057-.316c-.086.086-.287.2-.488.4a1.436,1.436,0,0,0-.316.459.713.713,0,0,0,.23.029C188.409,72.668,188.754,72.439,188.754,72.123Z" transform="translate(-125.571 -40.36)" fill="#fff"/>
      <path id="Trazado_5" data-name="Trazado 5" d="M244.557,121.8c-.459-.172-.6-.66-1.033-.889-.2-.115-.373-.115-.545-.258s-.23-.287-.459-.373-.316-.057-.488-.172c-.143-.115-.172-.6-.258-.832-.143-.459-.057-.832-.287-1.234-.172-.287-.287-.287-.287-.488a3.513,3.513,0,0,1,.287-.689c.23-.516.459-1.033.717-1.521a2.638,2.638,0,0,1,.459-.775c.115-.143.344-.2.43-.316.23-.287.029-.775.287-1.09a1.127,1.127,0,0,1,.89-.344,14.6,14.6,0,0,1,1.607-.115,3.534,3.534,0,0,1,1.262.2,11.126,11.126,0,0,1,1.32.631,3.954,3.954,0,0,1,1.377,1.291,2.514,2.514,0,0,1,.23,1.205,5.076,5.076,0,0,1,.086.6.773.773,0,0,1-.172.488c-.2.316-.545.574-.775.889a17.152,17.152,0,0,1-1.119,1.406,12.136,12.136,0,0,1-1.693,1.865,2.36,2.36,0,0,1-1.406.6A.694.694,0,0,1,244.557,121.8Z" transform="translate(-171.992 -80.363)" fill="#fff"/>
    </g>
  </g>
</svg>
