<svg xmlns="http://www.w3.org/2000/svg" width="122.339" height="38.056" viewBox="0 0 122.339 38.056">
  <g id="Welcome" transform="translate(-31.742 -18.868)">
    <g id="Proyectos:-Final" transform="translate(31.742 18.868)">
      <g id="EresMama-Copy-2" transform="translate(0 0)">
        <g id="Text" transform="translate(0 0)">
          <g id="logo-desktop-2" transform="translate(0)">
            <g id="Group_1">
              <path id="Path_2" d="M230.51,19.032a2.1,2.1,0,0,0-1.457-.609H225.6a1.1,1.1,0,0,1-1.073-.837l-3.91-15.214a2.013,2.013,0,0,0-3.757-.38L202.14,31.317h0l-3.335-11.3a2.011,2.011,0,0,0-1.955-1.445H186.729a2.016,2.016,0,1,0,0,4.032h7.744a1.15,1.15,0,0,1,1.073.8l4.14,14.073a2.006,2.006,0,0,0,1.764,1.445h.192a2,2,0,0,0,1.8-1.1l14.568-29.1h0l3.144,12.247a2.045,2.045,0,0,0,1.955,1.521h5.827a2.094,2.094,0,0,0,2.109-1.94A1.919,1.919,0,0,0,230.51,19.032Z" transform="translate(-108.713 -0.868)" fill="#fff" fill-rule="evenodd"/>
              <path id="Path_3" d="M12.282,3.5a5.072,5.072,0,0,0-2.109-1.293,10.274,10.274,0,0,0-3.3-.456,21.427,21.427,0,0,0-2.147.114c-.767.076-1.5.152-2.224.228L.743,14.529a18.679,18.679,0,0,0,1.917.228c.613.038,1.342.076,2.109.076a12.292,12.292,0,0,0,3.565-.456A7.52,7.52,0,0,0,10.9,13.046a6.259,6.259,0,0,0,1.648-2.092,8.661,8.661,0,0,0,.805-2.738,7.545,7.545,0,0,0-.038-2.624A4.018,4.018,0,0,0,12.282,3.5ZM9.177,8.139a4.142,4.142,0,0,1-1.035,2.51,3.011,3.011,0,0,1-2.147.761,1.881,1.881,0,0,1-.46-.038c-.077,0-.153-.038-.23-.038l.882-6.124a1.314,1.314,0,0,1,.383-.038c.192,0,.345-.038.537-.038a2.019,2.019,0,0,1,1.764.723,3.169,3.169,0,0,1,.307,2.282Z" transform="translate(-0.743 -1.385)" fill="#fff"/>
              <path id="Path_4" d="M66.819,2.646a4.451,4.451,0,0,0-1.8-.761,10.662,10.662,0,0,0-2.185-.228c-.728,0-1.5.038-2.3.076A23.119,23.119,0,0,0,58.194,2L56.43,14.437a10.411,10.411,0,0,0,1.073.152,10.24,10.24,0,0,0,1.764,0c.383-.038.767-.076,1.15-.152l.422-2.967a1.069,1.069,0,0,0,.345.038c.192,0,.422.038.69.038a7.269,7.269,0,0,0,2.032-.266,5.068,5.068,0,0,0,3.412-2.32,5.392,5.392,0,0,0,.805-2.32,4.592,4.592,0,0,0-.192-2.472A2.8,2.8,0,0,0,66.819,2.646ZM64.136,6.64a1.927,1.927,0,0,1-.767,1.445,2.348,2.348,0,0,1-1.457.418h-.307a.85.85,0,0,1-.307-.038l.5-3.613c.115,0,.268-.038.383-.038h.268a1.876,1.876,0,0,1,1.3.456,1.493,1.493,0,0,1,.383,1.369Z" transform="translate(-33.428 -1.331)" fill="#fff"/>
              <path id="Path_5" d="M97.793,3.537A4.029,4.029,0,0,0,96.03,2.206a6.927,6.927,0,0,0-2.684-.456,8.4,8.4,0,0,0-2.76.456,6.56,6.56,0,0,0-2.147,1.331,7.458,7.458,0,0,0-1.5,2.092,9.133,9.133,0,0,0-.767,2.7,7.764,7.764,0,0,0,.038,2.662,5,5,0,0,0,.92,2.054A4.7,4.7,0,0,0,88.9,14.377a6.857,6.857,0,0,0,2.645.456,8.631,8.631,0,0,0,2.8-.456,5.983,5.983,0,0,0,2.147-1.331,7.86,7.86,0,0,0,1.5-2.054,9.226,9.226,0,0,0,.767-2.662,9.108,9.108,0,0,0,0-2.7A6.172,6.172,0,0,0,97.793,3.537Zm-3.259,4.83a5.169,5.169,0,0,1-.843,2.358,2.114,2.114,0,0,1-1.725.837,1.433,1.433,0,0,1-1.457-.837,4.408,4.408,0,0,1-.192-2.358,5.005,5.005,0,0,1,.843-2.358,2.094,2.094,0,0,1,1.687-.837,1.521,1.521,0,0,1,1.5.837,4.017,4.017,0,0,1,.192,2.358Z" transform="translate(-50.83 -1.385)" fill="#fff"/>
              <path id="Path_6" d="M129.486,8.177a3.366,3.366,0,0,0,.537-.951,3.809,3.809,0,0,0,.345-1.293,3.126,3.126,0,0,0-1.035-3.081,6.745,6.745,0,0,0-4.294-1.1c-.728,0-1.533.038-2.339.114q-1.265.114-2.415.228l-1.764,12.437a9.791,9.791,0,0,0,1.112.152,11.148,11.148,0,0,0,1.84,0c.383-.038.767-.076,1.15-.152l1.342-9.509a4.437,4.437,0,0,1,.728-.038,1.454,1.454,0,0,1,1.15.418,1.169,1.169,0,0,1,.23,1.027,2.688,2.688,0,0,1-.5,1.179,3.771,3.771,0,0,1-1.3,1.027l-.383.19,1.917,5.705a9.7,9.7,0,0,0,1.035.152c.422.038.843.038,1.3.038.383,0,.767,0,1.15-.038a11.147,11.147,0,0,0,1.112-.152l-2.032-5.287c.115-.114.307-.228.5-.38C129.1,8.634,129.294,8.406,129.486,8.177Z" transform="translate(-69.872 -1.385)" fill="#fff" fill-rule="evenodd"/>
              <path id="Path_7" d="M161.886,4.106a5.632,5.632,0,0,0,.077-.8,7.27,7.27,0,0,0-.038-.913H150.576a3.6,3.6,0,0,0-.268.913,5.864,5.864,0,0,0-.153.8,5.632,5.632,0,0,0-.077.8,7.27,7.27,0,0,0,.038.913h3.6l-1.3,9.09c.383.076.767.114,1.112.152a7.445,7.445,0,0,0,.92.038,8.088,8.088,0,0,0,.92-.038c.345-.038.728-.076,1.15-.152l1.3-9.09h3.6a4.115,4.115,0,0,0,.268-.913A6.043,6.043,0,0,0,161.886,4.106Z" transform="translate(-88.393 -1.764)" fill="#fff" fill-rule="evenodd"/>
              <path id="Path_8" d="M182.155,14.637l1.763-12.475a9.876,9.876,0,0,0-1.035-.19,8.734,8.734,0,0,0-1-.038,10.136,10.136,0,0,0-1.035.038,4.869,4.869,0,0,0-1.073.19l-1.763,12.475c.383.076.767.114,1.112.152a7.445,7.445,0,0,0,.92.038,8.088,8.088,0,0,0,.92-.038C181.311,14.751,181.733,14.675,182.155,14.637Z" transform="translate(-104.79 -1.493)" fill="#fff" fill-rule="evenodd"/>
              <path id="Path_9" d="M198.278,11.16a.916.916,0,0,1-.422.228,3.078,3.078,0,0,1-.575.114c-.23,0-.422.038-.613.038a8.492,8.492,0,0,1-1.687-.19,7.649,7.649,0,0,1-1.572-.532,10.692,10.692,0,0,0-1.38,3.347,9.5,9.5,0,0,0,2.032.571,13.645,13.645,0,0,0,2.147.19,9.439,9.439,0,0,0,2.53-.342,6.532,6.532,0,0,0,1.955-.913A4.437,4.437,0,0,0,202,12.3a4.6,4.6,0,0,0,.613-1.712,3.935,3.935,0,0,0-.038-1.521A2.346,2.346,0,0,0,202.035,8a3.353,3.353,0,0,0-.92-.723,8.438,8.438,0,0,0-1.265-.456l-1.533-.418a3.615,3.615,0,0,1-.575-.228.436.436,0,0,1-.23-.418c.038-.418.46-.647,1.227-.647a6.434,6.434,0,0,1,1.687.228,7.212,7.212,0,0,1,1.534.494,12.266,12.266,0,0,0,.843-1.559,8.524,8.524,0,0,0,.537-1.674,19.075,19.075,0,0,0-2.109-.571,11.79,11.79,0,0,0-1.994-.19,7.22,7.22,0,0,0-2.185.3,6,6,0,0,0-1.8.837,4.814,4.814,0,0,0-1.3,1.331,4.665,4.665,0,0,0-.652,1.712,2.929,2.929,0,0,0,.5,2.358A3.988,3.988,0,0,0,195.748,9.6l1.572.456a5.147,5.147,0,0,1,.69.266.387.387,0,0,1,.23.456C198.431,10.932,198.393,11.084,198.278,11.16Z" transform="translate(-113.016 -1.439)" fill="#fff" fill-rule="evenodd"/>
              <path id="Path_10" d="M224.667,5.817l-1.3,9.09c.383.076.767.114,1.112.152a7.445,7.445,0,0,0,.92.038,8.088,8.088,0,0,0,.92-.038c.345-.038.728-.076,1.15-.152l1.3-9.09h3.6a4.117,4.117,0,0,0,.268-.913,7.237,7.237,0,0,0,.153-.8,5.636,5.636,0,0,0,.077-.8,7.267,7.267,0,0,0-.038-.913H221.485a3.6,3.6,0,0,0-.268.913,5.864,5.864,0,0,0-.153.8,5.632,5.632,0,0,0-.077.8,7.273,7.273,0,0,0,.038.913Z" transform="translate(-130.012 -1.764)" fill="#fff" fill-rule="evenodd"/>
              <path id="Path_11" d="M34.232,1.75l-1.84,12.932h7.782a9.6,9.6,0,0,0,.383-1.407A8.174,8.174,0,0,0,40.6,11.9H36.034l.345-2.548h3.489a5.818,5.818,0,0,0,.345-1.407,5.768,5.768,0,0,0,.038-1.407H36.762l.268-1.978h4.447a9.41,9.41,0,0,0,.345-1.407,3.453,3.453,0,0,0,.038-.647V1.788H34.232V1.75Z" transform="translate(-19.319 -1.385)" fill="#fff" fill-rule="evenodd"/>
            </g>
          </g>
        </g>
      </g>
    </g>
  </g>
</svg>
