<svg xmlns="http://www.w3.org/2000/svg" width="24.562" height="32.738" viewBox="0 0 24.562 32.738">
  <path id="Unión_7" data-name="Unión 7" d="M.222,20.15V16.439s-.046-.093-.1-.093A.163.163,0,0,1,0,16.254V15.98a.332.332,0,0,1,.125-.091H14.782a.111.111,0,0,1,.111.111v.222a.111.111,0,0,1-.111.111.111.111,0,0,0-.111.111v3.864s-.019.1-.148.053a4.168,4.168,0,0,0-2.333-.7,3.981,3.981,0,0,0-3.981,3.191,3.4,3.4,0,0,0-.083.742,3.686,3.686,0,0,0,2.281,3.327,4.223,4.223,0,0,0,4.243-.4,3.606,3.606,0,0,0,1.571-2.75l.006.006v-.292c0-1.971-.007-15.5-.01-20.969A2.291,2.291,0,0,1,18.511.222h4.5a.111.111,0,0,0,.111-.111A.111.111,0,0,1,23.228,0h.222a.111.111,0,0,1,.111.111v1.4a.111.111,0,0,1-.111.111h-.222a.111.111,0,0,1-.111-.111.111.111,0,0,0-.111-.111h-1.7a.56.56,0,0,0-.561.559V20.151c0,6.4-4.028,11.588-10.449,11.588S.222,26.55.222,20.15Zm10.169,3.409a1.8,1.8,0,1,1,1.794,1.674A1.738,1.738,0,0,1,10.392,23.559Z" transform="translate(0.5 0.5)" fill="#fff" stroke="rgba(0,0,0,0)" stroke-miterlimit="10" stroke-width="1"/>
</svg>
