<svg id="themesei-logo" xmlns="http://www.w3.org/2000/svg" width="34.222" height="37.534" viewBox="0 0 34.222 37.534">
  <g id="Grupo_94">
    <g id="logo">
      <path id="Path_1" d="M5.385,113.581c-1.562,1.131-3.231,2.181-4.874,3.231l-.512.3,3.366,3.366.3-.162c1.562-.969,3.285-2.1,4.954-3.231l.458-.3L5.789,113.5Zm-1.939,5.627L1.508,117.27l6.058-.754C6.139,117.485,4.793,118.374,3.446,119.208Z" transform="translate(0 -82.939)" fill="#fff"/>
      <path id="Path_2" d="M21.4,105.442l4.5,4.5,1.642-1.642-4.5-4.5Zm4.5,3.07-3.15-3.15.3-.3,3.15,3.15Z" transform="translate(-15.638 -75.851)" fill="#fff"/>
      <path id="Path_3" d="M57.9,7.728c-.081-2.019-.215-4.2-.377-6.22L57.441,0l-.754,1.266A103.33,103.33,0,0,1,45.971,15.644,97.159,97.159,0,0,1,32.858,27.868l-.458.3,3.285,3.285.3-.215A106.157,106.157,0,0,0,47.828,20.517,99.157,99.157,0,0,0,57.791,8l.081-.162ZM47.128,19.844a100.951,100.951,0,0,1-11.39,10.339L33.8,28.245A98.181,98.181,0,0,0,46.617,16.263,98.507,98.507,0,0,0,56.741,3.016c.081,1.508.162,3.07.215,4.577a102.524,102.524,0,0,1-9.828,12.251Z" transform="translate(-23.676)" fill="#fff"/>
      <path id="Path_4" d="M46.677,40.777h5.331c1.266-1.508,2.558-2.989,3.743-4.577H42.369a.254.254,0,0,0-.269.269V50.524c.969-.835,3.985-3.608,4.577-4.12Z" transform="translate(-30.764 -26.453)" fill="#fff"/>
      <path id="Path_5" d="M73.355,60.147v5.116h-4.9c-.969.969-1.939,1.885-2.935,2.773L63.5,69.84H77.636a.254.254,0,0,0,.269-.269V54.6c-.458.592-.835,1.131-1.266,1.642C75.59,57.535,74.459,58.881,73.355,60.147Z" transform="translate(-46.402 -39.899)" fill="#fff"/>
    </g>
  </g>
</svg>
